cmake-build-debug/34_WaveForm.vcd
$date
     Sep 14, 2025       16:38:05
$end

$version
 SystemC 3.0.1-Accellera --- Oct 15 2024 13:47:45
$end

$timescale
     1 ns
$end

$scope module SystemC $end
$var wire   32  aaaaa  data [31:0]  $end
$var wire    1  aaaab  ready       $end
$var wire    1  aaaac  valid       $end
$var wire    2  aaaad  error [1:0]  $end
$var wire    1  aaaae  clock       $end
$var wire    4  aaaaf  channel [3:0]  $end
$upscope $end
$enddefinitions  $end

$comment
All initial values are dumped below at time 0 sec = 0 timescale units.
$end

$dumpvars
b0 aaaaa
0aaaab
0aaaac
b0 aaaad
1aaaae
b0 aaaaf
$end

#10
b100011000 aaaaa
1aaaab
0aaaae

#20
1aaaac
1aaaae

#30
0aaaab
0aaaac
0aaaae

#40
b1011101 aaaaa
1aaaab
1aaaae

#50
1aaaac
0aaaae

#60
0aaaab
0aaaac
1aaaae

#70
b11001100 aaaaa
1aaaab
0aaaae

#80
1aaaac
1aaaae

#90
0aaaab
0aaaac
0aaaae

#100
b1101111 aaaaa
1aaaab
1aaaae

#110
1aaaac
0aaaae

#120
0aaaab
0aaaac
1aaaae

#130
b11011110 aaaaa
1aaaab
0aaaae

#140
1aaaac
1aaaae

#150
0aaaab
0aaaac
0aaaae

#160
b1010001 aaaaa
1aaaab
1aaaae

#170
1aaaac
0aaaae

#180
0aaaab
0aaaac
1aaaae

#190
b10011000 aaaaa
1aaaab
0aaaae

#200
1aaaac
1aaaae

#210
0aaaab
0aaaac
0aaaae

#220
b100111 aaaaa
1aaaab
1aaaae

#230
1aaaac
0aaaae

#240
0aaaab
0aaaac
1aaaae

#250
b1000 aaaaa
1aaaab
0aaaae

#260
1aaaac
1aaaae

#270
0aaaab
0aaaac
0aaaae

#280
b10110000 aaaaa
1aaaab
1aaaae

#290
1aaaac
0aaaae

#300
0aaaab
0aaaac
1aaaae

#310
b111 aaaaa
1aaaab
0aaaae

#320
1aaaac
1aaaae

#330
0aaaab
0aaaac
0aaaae

#340
b111100 aaaaa
1aaaab
1aaaae

#350
1aaaac
0aaaae

#360
0aaaab
0aaaac
1aaaae

#370
b11101 aaaaa
1aaaab
0aaaae

#380
1aaaac
1aaaae

#390
0aaaab
0aaaac
0aaaae

#400
b10011000 aaaaa
1aaaab
1aaaae

#410
1aaaac
0aaaae

#420
0aaaab
0aaaac
1aaaae

#430
b100001001 aaaaa
1aaaab
0aaaae

#440
1aaaac
1aaaae

#450
0aaaab
0aaaac
0aaaae

#460
b10001110 aaaaa
1aaaab
1aaaae

#470
1aaaac
0aaaae

#480
0aaaab
0aaaac
1aaaae

#490
b1111111 aaaaa
1aaaab
0aaaae

