cmake-build-debug/34_WaveForm.vcd
$date
     Sep 14, 2025       16:34:06
$end

$version
 SystemC 3.0.1-Accellera --- Oct 15 2024 13:47:45
$end

$timescale
     1 ns
$end

$scope module SystemC $end
$var wire   32  aaaaa  data [31:0]  $end
$var wire    1  aaaab  ready       $end
$var wire    1  aaaac  valid       $end
$var wire    2  aaaad  error [1:0]  $end
$var wire    1  aaaae  clock       $end
$var wire    4  aaaaf  channel [3:0]  $end
$upscope $end
$enddefinitions  $end

$comment
All initial values are dumped below at time 0 sec = 0 timescale units.
$end

$dumpvars
b0 aaaaa
0aaaab
0aaaac
b0 aaaad
1aaaae
b0 aaaaf
$end

#10
b10000000 aaaaa
1aaaab
1aaaac
0aaaae

#20
0aaaab
0aaaac
1aaaae

#30
b1111011 aaaaa
1aaaab
1aaaac
0aaaae

#40
0aaaab
0aaaac
1aaaae

#50
b10111111 aaaaa
1aaaab
1aaaac
0aaaae

#60
0aaaab
0aaaac
1aaaae

#70
b100010 aaaaa
1aaaab
1aaaac
0aaaae

#80
0aaaab
0aaaac
1aaaae

#90
b1111000 aaaaa
1aaaab
1aaaac
0aaaae

#100
0aaaab
0aaaac
1aaaae

#110
b11 aaaaa
1aaaab
1aaaac
0aaaae

#120
0aaaab
0aaaac
1aaaae

#130
b11001000 aaaaa
1aaaab
1aaaac
0aaaae

#140
0aaaab
0aaaac
1aaaae

#150
b10000001 aaaaa
1aaaab
1aaaac
0aaaae

#160
0aaaab
0aaaac
1aaaae

#170
b10100100 aaaaa
1aaaab
1aaaac
0aaaae

#180
0aaaab
0aaaac
1aaaae

#190
b100011010 aaaaa
1aaaab
1aaaac
0aaaae

#200
0aaaab
0aaaac
1aaaae

#210
b100010111 aaaaa
1aaaab
1aaaac
0aaaae

#220
0aaaab
0aaaac
1aaaae

#230
b1110110 aaaaa
1aaaab
1aaaac
0aaaae

#240
0aaaab
0aaaac
1aaaae

#250
b100011100 aaaaa
1aaaab
1aaaac
0aaaae

#260
0aaaab
0aaaac
1aaaae

#270
b100111101 aaaaa
1aaaab
1aaaac
0aaaae

#280
0aaaab
0aaaac
1aaaae

#290
b100111001 aaaaa
1aaaab
1aaaac
0aaaae

#300
0aaaab
0aaaac
1aaaae

#310
b10010001 aaaaa
1aaaab
1aaaac
0aaaae

#320
0aaaab
0aaaac
1aaaae

#330
b100111110 aaaaa
1aaaab
1aaaac
0aaaae

#340
0aaaab
0aaaac
1aaaae

#350
b10000111 aaaaa
1aaaab
1aaaac
0aaaae

#360
0aaaab
0aaaac
1aaaae

#370
b10100 aaaaa
1aaaab
1aaaac
0aaaae

#380
0aaaab
0aaaac
1aaaae

#390
b1100 aaaaa
1aaaab
1aaaac
0aaaae

#400
0aaaab
0aaaac
1aaaae

#410
b11111111 aaaaa
1aaaab
1aaaac
0aaaae

#420
0aaaab
0aaaac
1aaaae

#430
b110001 aaaaa
1aaaab
1aaaac
0aaaae

#440
0aaaab
0aaaac
1aaaae

#450
b10010 aaaaa
1aaaab
1aaaac
0aaaae

#460
0aaaab
0aaaac
1aaaae

#470
b11101001 aaaaa
1aaaab
1aaaac
0aaaae

#480
0aaaab
0aaaac
1aaaae

#490
b1110110 aaaaa
1aaaab
1aaaac
0aaaae

